{
  "plugins": [
    "react",
    "raect-native"
  ],
  "parserOptions": {
    "ecmaVersion": 2017,
    "sourceType": "module",
    "ecmaFeatures": {
      "jsx": true
    }
  },
  "rules": {
    "semi": 2,
    "quotes": [
      2,
      "single"
    ],
    "linebreak-style": [
      2,
      "unix"
    ],
    "no-use-before-define": "off",
    "react/jsx-filename-extension": "off",
    "react/prop-types": "off",
    "comma-dangle": "off"
  },
  "env": {
    "es6": true,
    "jest": false
  }
}